%!PS-Adobe-2.0 EPSF-2.0
%%Title: system_arch.fig
%%Creator: fig2dev Version 3.2 Patchlevel 5
%%CreationDate: Thu Feb 19 12:04:10 2009
%%For: tm226479@tm226479 (Thijs Metsch,,,)
%%BoundingBox: 0 0 200 164
%Magnification: 0.7000
%%EndComments
%%BeginProlog
/$F2psDict 200 dict def
$F2psDict begin
$F2psDict /mtrx matrix put
/col-1 {0 setgray} bind def
/col0 {0.000 0.000 0.000 srgb} bind def
/col1 {0.000 0.000 1.000 srgb} bind def
/col2 {0.000 1.000 0.000 srgb} bind def
/col3 {0.000 1.000 1.000 srgb} bind def
/col4 {1.000 0.000 0.000 srgb} bind def
/col5 {1.000 0.000 1.000 srgb} bind def
/col6 {1.000 1.000 0.000 srgb} bind def
/col7 {1.000 1.000 1.000 srgb} bind def
/col8 {0.000 0.000 0.560 srgb} bind def
/col9 {0.000 0.000 0.690 srgb} bind def
/col10 {0.000 0.000 0.820 srgb} bind def
/col11 {0.530 0.810 1.000 srgb} bind def
/col12 {0.000 0.560 0.000 srgb} bind def
/col13 {0.000 0.690 0.000 srgb} bind def
/col14 {0.000 0.820 0.000 srgb} bind def
/col15 {0.000 0.560 0.560 srgb} bind def
/col16 {0.000 0.690 0.690 srgb} bind def
/col17 {0.000 0.820 0.820 srgb} bind def
/col18 {0.560 0.000 0.000 srgb} bind def
/col19 {0.690 0.000 0.000 srgb} bind def
/col20 {0.820 0.000 0.000 srgb} bind def
/col21 {0.560 0.000 0.560 srgb} bind def
/col22 {0.690 0.000 0.690 srgb} bind def
/col23 {0.820 0.000 0.820 srgb} bind def
/col24 {0.500 0.190 0.000 srgb} bind def
/col25 {0.630 0.250 0.000 srgb} bind def
/col26 {0.750 0.380 0.000 srgb} bind def
/col27 {1.000 0.500 0.500 srgb} bind def
/col28 {1.000 0.630 0.630 srgb} bind def
/col29 {1.000 0.750 0.750 srgb} bind def
/col30 {1.000 0.880 0.880 srgb} bind def
/col31 {1.000 0.840 0.000 srgb} bind def

end

/cp {closepath} bind def
/ef {eofill} bind def
/gr {grestore} bind def
/gs {gsave} bind def
/sa {save} bind def
/rs {restore} bind def
/l {lineto} bind def
/m {moveto} bind def
/rm {rmoveto} bind def
/n {newpath} bind def
/s {stroke} bind def
/sh {show} bind def
/slc {setlinecap} bind def
/slj {setlinejoin} bind def
/slw {setlinewidth} bind def
/srgb {setrgbcolor} bind def
/rot {rotate} bind def
/sc {scale} bind def
/sd {setdash} bind def
/ff {findfont} bind def
/sf {setfont} bind def
/scf {scalefont} bind def
/sw {stringwidth} bind def
/tr {translate} bind def
/tnt {dup dup currentrgbcolor
  4 -2 roll dup 1 exch sub 3 -1 roll mul add
  4 -2 roll dup 1 exch sub 3 -1 roll mul add
  4 -2 roll dup 1 exch sub 3 -1 roll mul add srgb}
  bind def
/shd {dup dup currentrgbcolor 4 -2 roll mul 4 -2 roll mul
  4 -2 roll mul srgb} bind def
/$F2psBegin {$F2psDict begin /$F2psEnteredState save def} def
/$F2psEnd {$F2psEnteredState restore end} def

/pageheader {
save
newpath 0 164 moveto 0 0 lineto 200 0 lineto 200 164 lineto closepath clip newpath
-158.2 300.2 translate
1 -1 scale
$F2psBegin
10 setmiterlimit
0 slj 0 slc
 0.04409 0.04409 sc
} bind def
/pagefooter {
$F2psEnd
restore
} bind def
%%EndProlog
pageheader
%
% Fig objects follow
%
% 
% here starts figure with depth 50
% Polyline
0 slj
0 slc
7.500 slw
n 3600 6345 m 5625 6345 l 5625 6795 l 3600 6795 l
 cp gs col0 s gr 
% Polyline
n 5715 6345 m 7740 6345 l 7740 6795 l 5715 6795 l
 cp gs col0 s gr 
% Polyline
 [60] 0 sd
n 3600 5400 m 4455 5400 l 4455 6255 l 3600 6255 l
 cp gs col0 s gr  [] 0 sd
% Polyline
 [60] 0 sd
n 4545 5400 m 6750 5400 l 6750 6255 l 4545 6255 l
 cp gs col0 s gr  [] 0 sd
% Polyline
 [60] 0 sd
n 6840 5400 m 8100 5400 l 8100 6255 l 6840 6255 l
 cp gs col0 s gr  [] 0 sd
% Polyline
n 4177 6161 m 4304 5932 l 4169 5707 l 3907 5711 l 3780 5940 l 3915 6165 l

 cp gs col0 s gr 
% Polyline
n 5121 6144 m 5248 5915 l 5113 5690 l 4851 5694 l 4724 5923 l 4859 6148 l

 cp gs col0 s gr 
% Polyline
n 5842 6161 m 5969 5932 l 5834 5707 l 5572 5711 l 5445 5940 l 5580 6165 l

 cp gs col0 s gr 
% Polyline
n 6562 6161 m 6689 5932 l 6554 5707 l 6292 5711 l 6165 5940 l 6300 6165 l

 cp gs col0 s gr 
% Polyline
n 7597 6161 m 7724 5932 l 7589 5707 l 7327 5711 l 7200 5940 l 7335 6165 l

 cp gs col0 s gr 
% Polyline
n 3600 4725 m 8100 4725 l 8100 5175 l 3600 5175 l
 cp gs col0 s gr 
% Polyline
n 3600 4050 m 8100 4050 l 8100 4500 l 3600 4500 l
 cp gs col0 s gr 
% Polyline
30.000 slw
gs  clippath
5782 3625 m 5782 3975 l 5917 3975 l 5917 3625 l 5917 3625 l 5850 3895 l 5782 3625 l cp
eoclip
n 5850 3330 m
 5850 3960 l gs col0 s gr gr

% arrowhead
n 5782 3625 m 5850 3895 l 5917 3625 l 5782 3625 l  cp gs 0.00 setgray ef gr  col0 s
/Helvetica ff 222.25 scf sf
4275 6660 m
gs 1 -1 sc (VEEH) col0 sh gr
/Helvetica ff 222.25 scf sf
6390 6660 m
gs 1 -1 sc (VEEH) col0 sh gr
/Helvetica ff 222.25 scf sf
7875 6570 m
gs 1 -1 sc (...) col0 sh gr
/Helvetica ff 190.50 scf sf
3645 5625 m
gs 1 -1 sc (VEE) col0 sh gr
/Helvetica ff 190.50 scf sf
4590 5625 m
gs 1 -1 sc (VEE) col0 sh gr
/Helvetica ff 190.50 scf sf
6885 5625 m
gs 1 -1 sc (VEE) col0 sh gr
/Helvetica ff 222.25 scf sf
5535 5040 m
gs 1 -1 sc (VEEM) col0 sh gr
/Helvetica ff 222.25 scf sf
4995 4365 m
gs 1 -1 sc (Service Manager) col0 sh gr
/Helvetica ff 222.25 scf sf
4995 3285 m
gs 1 -1 sc (Service Provider) col0 sh gr
% here ends figure;
pagefooter
showpage
%%Trailer
%EOF
